sample() and distributions
…
##  ggplot2 3.3.2      purrr   0.3.4
##  tibble  3.0.3      dplyr   1.0.0
##  tidyr   1.1.0      stringr 1.4.0
##  readr   1.3.1      forcats 0.5.0

##  Conflicts  tidyverse_conflicts() 
## x dplyr::filter() masks stats::filter()
## x dplyr::lag()    masks stats::lag()

rn_df <- tibble(x = rnorm(10000, mean = 10, sd = 2)) 
#I put it in a tibble so I can plot it
rn_df

## # A tibble: 10,000 x 1
##        x
##    <dbl>
##  1 11.5 
##  2  9.34
##  3  9.94
##  4 11.9 
##  5  5.36
##  6 10.4 
##  7  9.58
##  8 10.2 
##  9 12.9 
## 10  5.43
## #  with 9,990 more rows
…
